{
  "name": "qareeb-web-reactjs",
  "$schema": "../../node_modules/nx/schemas/project-schema.json",
  "sourceRoot": "apps/qareeb-web-reactjs/src",
  "projectType": "application",
  "targets": {
    "build": {
      "executor": "@nx/webpack:webpack",
      "outputs": ["{options.outputPath}"],
      "defaultConfiguration": "production",
      "options": {
        "compiler": "babel",
        "outputPath": "dist/apps/qareeb-web-reactjs",
        "index": "apps/qareeb-web-reactjs/src/index.html",
        "baseHref": "/",
        "main": "apps/qareeb-web-reactjs/src/main.tsx",
        "tsConfig": "apps/qareeb-web-reactjs/tsconfig.app.json",
        "assets": [
          "apps/qareeb-web-reactjs/src/favicon.ico",
          "apps/qareeb-web-reactjs/src/assets"
        ],
        "styles": ["apps/qareeb-web-reactjs/src/styles.css"],
        "scripts": [],
        "isolatedConfig": true,
        "webpackConfig": "apps/qareeb-web-reactjs/webpack.config.js"
      },
      "configurations": {
        "development": {
          "extractLicenses": false,
          "optimization": false,
          "sourceMap": true,
          "vendorChunk": true
        },
        "production": {
          "fileReplacements": [
            {
              "replace": "apps/qareeb-web-reactjs/src/environments/environment.ts",
              "with": "apps/qareeb-web-reactjs/src/environments/environment.prod.ts"
            }
          ],
          "optimization": true,
          "outputHashing": "all",
          "sourceMap": false,
          "namedChunks": false,
          "extractLicenses": true,
          "vendorChunk": false
        }
      }
    },
    "serve": {
      "executor": "@nx/webpack:dev-server",
      "defaultConfiguration": "development",
      "options": {
        "buildTarget": "qareeb-web-reactjs:build",
        "hmr": true
      },
      "configurations": {
        "development": {
          "buildTarget": "qareeb-web-reactjs:build:development"
        },
        "production": {
          "buildTarget": "qareeb-web-reactjs:build:production",
          "hmr": false
        }
      }
    },
    "lint": {
      "executor": "@nx/eslint:lint",
      "outputs": ["{options.outputFile}"],
      "options": {
        "lintFilePatterns": ["apps/qareeb-web-reactjs/**/*.{ts,tsx,js,jsx}"]
      }
    },
    "serve-static": {
      "executor": "@nx/web:file-server",
      "options": {
        "buildTarget": "qareeb-web-reactjs:build"
      }
    },
    "test": {
      "executor": "@nx/jest:jest",
      "outputs": ["{workspaceRoot}/coverage/{projectRoot}"],
      "options": {
        "jestConfig": "apps/qareeb-web-reactjs/jest.config.ts",
        "passWithNoTests": true
      },
      "configurations": {
        "ci": {
          "ci": true,
          "codeCoverage": true
        }
      }
    }
  },
  "tags": []
}
