{
  "name": "qareeb-web-reactjs-e2e",
  "$schema": "../../node_modules/nx/schemas/project-schema.json",
  "projectType": "application",
  "sourceRoot": "apps/qareeb-web-reactjs-e2e/src",
  "targets": {
    "e2e": {
      "executor": "@nx/cypress:cypress",
      "options": {
        "cypressConfig": "apps/qareeb-web-reactjs-e2e/cypress.config.ts",
        "testingType": "e2e",
        "devServerTarget": "qareeb-web-reactjs:serve"
      },
      "configurations": {
        "production": {
          "devServerTarget": "qareeb-web-reactjs:serve:production"
        },
        "ci": {
          "devServerTarget": "qareeb-web-reactjs:serve-static"
        }
      }
    },
    "lint": {
      "executor": "@nx/eslint:lint",
      "outputs": ["{options.outputFile}"],
      "options": {
        "lintFilePatterns": ["apps/qareeb-web-reactjs-e2e/**/*.{js,ts}"]
      }
    }
  },
  "implicitDependencies": ["qareeb-web-reactjs"],
  "tags": []
}
